output/pre_synth_sim/pre_synth_sim.vcd
$date
	Sat Oct  4 14:45:41 2025
$end
$version
	Icarus Verilog
$end
$timescale
	1ps
$end
$scope module vsdbabysoc_tb $end
$var reg 1 ! ENb_CP $end
$var reg 1 " ENb_VCO $end
$var reg 1 # REF $end
$var reg 1 $ VCO_IN $end
$var reg 1 % reset $end
$var real 1 & VREFH $end
$var real 1 ' VREFL $end
$var real 1 ( OUT $end
$scope module uut $end
$var wire 1 ! ENb_CP $end
$var wire 1 " ENb_VCO $end
$var wire 1 # REF $end
$var wire 1 $ VCO_IN $end
$var wire 1 ) VREFH $end
$var wire 1 % reset $end
$var wire 10 * RV_TO_DAC [9:0] $end
$var wire 1 + OUT $end
$var wire 1 , CLK $end
$scope module core $end
$var wire 1 - CPU_dmem_rd_en_a4 $end
$var wire 1 . CPU_dmem_wr_en_a4 $end
$var wire 1 / CPU_funct3_valid_a1 $end
$var wire 1 0 CPU_funct7_valid_a1 $end
$var wire 32 1 CPU_instr_a1 [31:0] $end
$var wire 1 2 CPU_is_i_instr_a1 $end
$var wire 1 3 CPU_is_jump_a1 $end
$var wire 1 4 CPU_is_r_instr_a1 $end
$var wire 1 5 CPU_is_s_instr_a1 $end
$var wire 1 6 CPU_is_u_instr_a1 $end
$var wire 32 7 CPU_ld_data_a5 [31:0] $end
$var wire 1 8 CPU_rd_valid_a1 $end
$var wire 1 9 CPU_reset_a0 $end
$var wire 32 : CPU_rf_rd_data1_a2 [31:0] $end
$var wire 32 ; CPU_rf_rd_data2_a2 [31:0] $end
$var wire 1 < CPU_rf_rd_en1_a2 $end
$var wire 1 = CPU_rf_rd_en2_a2 $end
$var wire 5 > CPU_rf_rd_index1_a2 [4:0] $end
$var wire 5 ? CPU_rf_rd_index2_a2 [4:0] $end
$var wire 1 @ CPU_rf_wr_en_a3 $end
$var wire 1 A CPU_rs1_valid_a1 $end
$var wire 1 B CPU_rs2_valid_a1 $end
$var wire 1 C CPU_valid_jump_a3 $end
$var wire 1 D CPU_valid_load_a3 $end
$var wire 1 E CPU_valid_taken_br_a3 $end
$var wire 1 F clk $end
$var wire 1 % reset $end
$var wire 32 G w_CPU_dmem_rd_data_a4 [31:0] $end
$var wire 5 H w_CPU_rs2_a1 [4:0] $end
$var wire 5 I w_CPU_rs1_a1 [4:0] $end
$var wire 5 J w_CPU_rd_a1 [4:0] $end
$var wire 1 K clkP_CPU_rs2_valid_a2 $end
$var wire 1 L clkP_CPU_rs1_valid_a2 $end
$var wire 1 M clkP_CPU_rd_valid_a5 $end
$var wire 1 N clkP_CPU_rd_valid_a4 $end
$var wire 1 O clkP_CPU_rd_valid_a3 $end
$var wire 1 P clkP_CPU_rd_valid_a2 $end
$var wire 1 Q clkP_CPU_dmem_rd_en_a5 $end
$var wire 1 R CPU_valid_a3 $end
$var wire 1 S CPU_taken_br_a3 $end
$var wire 32 T CPU_src2_value_a2 [31:0] $end
$var wire 32 U CPU_src1_value_a2 [31:0] $end
$var wire 1 V CPU_sltu_result_a3 $end
$var wire 1 W CPU_sltiu_result_a3 $end
$var wire 5 X CPU_rf_wr_index_a3 [4:0] $end
$var wire 32 Y CPU_rf_wr_data_a3 [31:0] $end
$var wire 32 Z CPU_result_a3 [31:0] $end
$var wire 32 [ CPU_pc_a0 [31:0] $end
$var wire 7 \ CPU_opcode_a1 [6:0] $end
$var wire 32 ] CPU_jalr_tgt_pc_a2 [31:0] $end
$var wire 1 ^ CPU_is_xori_a1 $end
$var wire 1 _ CPU_is_xor_a1 $end
$var wire 1 ` CPU_is_sw_a1 $end
$var wire 1 a CPU_is_sub_a1 $end
$var wire 1 b CPU_is_srli_a1 $end
$var wire 1 c CPU_is_srl_a1 $end
$var wire 1 d CPU_is_srai_a1 $end
$var wire 1 e CPU_is_sra_a1 $end
$var wire 1 f CPU_is_sltu_a1 $end
$var wire 1 g CPU_is_sltiu_a1 $end
$var wire 1 h CPU_is_slti_a1 $end
$var wire 1 i CPU_is_slt_a1 $end
$var wire 1 j CPU_is_slli_a1 $end
$var wire 1 k CPU_is_sll_a1 $end
$var wire 1 l CPU_is_sh_a1 $end
$var wire 1 m CPU_is_sb_a1 $end
$var wire 1 n CPU_is_ori_a1 $end
$var wire 1 o CPU_is_or_a1 $end
$var wire 1 p CPU_is_lui_a1 $end
$var wire 1 q CPU_is_load_a1 $end
$var wire 1 r CPU_is_jalr_a1 $end
$var wire 1 s CPU_is_jal_a1 $end
$var wire 1 t CPU_is_j_instr_a1 $end
$var wire 1 u CPU_is_bne_a1 $end
$var wire 1 v CPU_is_bltu_a1 $end
$var wire 1 w CPU_is_blt_a1 $end
$var wire 1 x CPU_is_bgeu_a1 $end
$var wire 1 y CPU_is_bge_a1 $end
$var wire 1 z CPU_is_beq_a1 $end
$var wire 1 { CPU_is_b_instr_a1 $end
$var wire 1 | CPU_is_auipc_a1 $end
$var wire 1 } CPU_is_andi_a1 $end
$var wire 1 ~ CPU_is_and_a1 $end
$var wire 1 !" CPU_is_addi_a1 $end
$var wire 1 "" CPU_is_add_a1 $end
$var wire 32 #" CPU_inc_pc_a1 [31:0] $end
$var wire 32 $" CPU_imm_a1 [31:0] $end
$var wire 1 %" CPU_imem_rd_en_a0 $end
$var wire 32 &" CPU_imem_rd_data_a1 [31:0] $end
$var wire 32 '" CPU_imem_rd_addr_a0 [31:0] $end
$var wire 7 (" CPU_funct7_a1 [6:0] $end
$var wire 3 )" CPU_funct3_a1 [2:0] $end
$var wire 32 *" CPU_dmem_wr_data_a4 [31:0] $end
$var wire 4 +" CPU_dmem_addr_a4 [3:0] $end
$var wire 11 ," CPU_dec_bits_a1 [10:0] $end
$var wire 32 -" CPU_br_tgt_pc_a2 [31:0] $end
$var wire 1 , CLK $end
$var reg 32 ." CPU_br_tgt_pc_a3 [31:0] $end
$var reg 32 /" CPU_dmem_rd_data_a5 [31:0] $end
$var reg 32 0" CPU_imem_rd_addr_a1 [31:0] $end
$var reg 1 1" CPU_imem_rd_en_a1 $end
$var reg 32 2" CPU_imm_a2 [31:0] $end
$var reg 32 3" CPU_imm_a3 [31:0] $end
$var reg 32 4" CPU_inc_pc_a2 [31:0] $end
$var reg 32 5" CPU_inc_pc_a3 [31:0] $end
$var reg 1 6" CPU_is_add_a2 $end
$var reg 1 7" CPU_is_add_a3 $end
$var reg 1 8" CPU_is_addi_a2 $end
$var reg 1 9" CPU_is_addi_a3 $end
$var reg 1 :" CPU_is_and_a2 $end
$var reg 1 ;" CPU_is_and_a3 $end
$var reg 1 <" CPU_is_andi_a2 $end
$var reg 1 =" CPU_is_andi_a3 $end
$var reg 1 >" CPU_is_auipc_a2 $end
$var reg 1 ?" CPU_is_auipc_a3 $end
$var reg 1 @" CPU_is_beq_a2 $end
$var reg 1 A" CPU_is_beq_a3 $end
$var reg 1 B" CPU_is_beq_a4 $end
$var reg 1 C" CPU_is_beq_a5 $end
$var reg 1 D" CPU_is_bge_a2 $end
$var reg 1 E" CPU_is_bge_a3 $end
$var reg 1 F" CPU_is_bge_a4 $end
$var reg 1 G" CPU_is_bge_a5 $end
$var reg 1 H" CPU_is_bgeu_a2 $end
$var reg 1 I" CPU_is_bgeu_a3 $end
$var reg 1 J" CPU_is_bgeu_a4 $end
$var reg 1 K" CPU_is_bgeu_a5 $end
$var reg 1 L" CPU_is_blt_a2 $end
$var reg 1 M" CPU_is_blt_a3 $end
$var reg 1 N" CPU_is_blt_a4 $end
$var reg 1 O" CPU_is_blt_a5 $end
$var reg 1 P" CPU_is_bltu_a2 $end
$var reg 1 Q" CPU_is_bltu_a3 $end
$var reg 1 R" CPU_is_bltu_a4 $end
$var reg 1 S" CPU_is_bltu_a5 $end
$var reg 1 T" CPU_is_bne_a2 $end
$var reg 1 U" CPU_is_bne_a3 $end
$var reg 1 V" CPU_is_bne_a4 $end
$var reg 1 W" CPU_is_bne_a5 $end
$var reg 1 X" CPU_is_jal_a2 $end
$var reg 1 Y" CPU_is_jal_a3 $end
$var reg 1 Z" CPU_is_jalr_a2 $end
$var reg 1 [" CPU_is_jalr_a3 $end
$var reg 1 \" CPU_is_jump_a2 $end
$var reg 1 ]" CPU_is_jump_a3 $end
$var reg 1 ^" CPU_is_load_a2 $end
$var reg 1 _" CPU_is_load_a3 $end
$var reg 1 `" CPU_is_lui_a2 $end
$var reg 1 a" CPU_is_lui_a3 $end
$var reg 1 b" CPU_is_or_a2 $end
$var reg 1 c" CPU_is_or_a3 $end
$var reg 1 d" CPU_is_ori_a2 $end
$var reg 1 e" CPU_is_ori_a3 $end
$var reg 1 f" CPU_is_s_instr_a2 $end
$var reg 1 g" CPU_is_s_instr_a3 $end
$var reg 1 h" CPU_is_s_instr_a4 $end
$var reg 1 i" CPU_is_sb_a2 $end
$var reg 1 j" CPU_is_sb_a3 $end
$var reg 1 k" CPU_is_sb_a4 $end
$var reg 1 l" CPU_is_sb_a5 $end
$var reg 1 m" CPU_is_sh_a2 $end
$var reg 1 n" CPU_is_sh_a3 $end
$var reg 1 o" CPU_is_sh_a4 $end
$var reg 1 p" CPU_is_sh_a5 $end
$var reg 1 q" CPU_is_sll_a2 $end
$var reg 1 r" CPU_is_sll_a3 $end
$var reg 1 s" CPU_is_slli_a2 $end
$var reg 1 t" CPU_is_slli_a3 $end
$var reg 1 u" CPU_is_slt_a2 $end
$var reg 1 v" CPU_is_slt_a3 $end
$var reg 1 w" CPU_is_slti_a2 $end
$var reg 1 x" CPU_is_slti_a3 $end
$var reg 1 y" CPU_is_sltiu_a2 $end
$var reg 1 z" CPU_is_sltiu_a3 $end
$var reg 1 {" CPU_is_sltu_a2 $end
$var reg 1 |" CPU_is_sltu_a3 $end
$var reg 1 }" CPU_is_sra_a2 $end
$var reg 1 ~" CPU_is_sra_a3 $end
$var reg 1 !# CPU_is_srai_a2 $end
$var reg 1 "# CPU_is_srai_a3 $end
$var reg 1 ## CPU_is_srl_a2 $end
$var reg 1 $# CPU_is_srl_a3 $end
$var reg 1 %# CPU_is_srli_a2 $end
$var reg 1 &# CPU_is_srli_a3 $end
$var reg 1 '# CPU_is_sub_a2 $end
$var reg 1 (# CPU_is_sub_a3 $end
$var reg 1 )# CPU_is_sw_a2 $end
$var reg 1 *# CPU_is_sw_a3 $end
$var reg 1 +# CPU_is_sw_a4 $end
$var reg 1 ,# CPU_is_sw_a5 $end
$var reg 1 -# CPU_is_xor_a2 $end
$var reg 1 .# CPU_is_xor_a3 $end
$var reg 1 /# CPU_is_xori_a2 $end
$var reg 1 0# CPU_is_xori_a3 $end
$var reg 32 1# CPU_jalr_tgt_pc_a3 [31:0] $end
$var reg 32 2# CPU_pc_a1 [31:0] $end
$var reg 32 3# CPU_pc_a2 [31:0] $end
$var reg 32 4# CPU_pc_a3 [31:0] $end
$var reg 5 5# CPU_rd_a2 [4:0] $end
$var reg 5 6# CPU_rd_a3 [4:0] $end
$var reg 5 7# CPU_rd_a4 [4:0] $end
$var reg 5 8# CPU_rd_a5 [4:0] $end
$var reg 1 9# CPU_rd_valid_a2 $end
$var reg 1 :# CPU_rd_valid_a3 $end
$var reg 1 ;# CPU_rd_valid_a4 $end
$var reg 1 <# CPU_reset_a1 $end
$var reg 1 =# CPU_reset_a2 $end
$var reg 1 ># CPU_reset_a3 $end
$var reg 1 ?# CPU_reset_a4 $end
$var reg 4 @# CPU_result_a4 [5:2] $end
$var reg 5 A# CPU_rs1_a2 [4:0] $end
$var reg 1 B# CPU_rs1_valid_a2 $end
$var reg 5 C# CPU_rs2_a2 [4:0] $end
$var reg 1 D# CPU_rs2_valid_a2 $end
$var reg 32 E# CPU_src1_value_a3 [31:0] $end
$var reg 32 F# CPU_src2_value_a3 [31:0] $end
$var reg 32 G# CPU_src2_value_a4 [31:0] $end
$var reg 1 H# CPU_valid_a4 $end
$var reg 1 I# CPU_valid_jump_a4 $end
$var reg 1 J# CPU_valid_jump_a5 $end
$var reg 1 K# CPU_valid_load_a4 $end
$var reg 1 L# CPU_valid_load_a5 $end
$var reg 1 M# CPU_valid_taken_br_a4 $end
$var reg 1 N# CPU_valid_taken_br_a5 $end
$var reg 10 O# OUT [9:0] $end
$scope begin L1_CPU_Dmem[0] $end
$var wire 1 P# L1_wr_a4 $end
$upscope $end
$scope begin L1_CPU_Dmem[1] $end
$var wire 1 Q# L1_wr_a4 $end
$upscope $end
$scope begin L1_CPU_Dmem[2] $end
$var wire 1 R# L1_wr_a4 $end
$upscope $end
$scope begin L1_CPU_Dmem[3] $end
$var wire 1 S# L1_wr_a4 $end
$upscope $end
$scope begin L1_CPU_Dmem[4] $end
$var wire 1 T# L1_wr_a4 $end
$upscope $end
$scope begin L1_CPU_Dmem[5] $end
$var wire 1 U# L1_wr_a4 $end
$upscope $end
$scope begin L1_CPU_Dmem[6] $end
$var wire 1 V# L1_wr_a4 $end
$upscope $end
$scope begin L1_CPU_Dmem[7] $end
$var wire 1 W# L1_wr_a4 $end
$upscope $end
$scope begin L1_CPU_Dmem[8] $end
$var wire 1 X# L1_wr_a4 $end
$upscope $end
$scope begin L1_CPU_Dmem[9] $end
$var wire 1 Y# L1_wr_a4 $end
$upscope $end
$scope begin L1_CPU_Dmem[10] $end
$var wire 1 Z# L1_wr_a4 $end
$upscope $end
$scope begin L1_CPU_Dmem[11] $end
$var wire 1 [# L1_wr_a4 $end
$upscope $end
$scope begin L1_CPU_Dmem[12] $end
$var wire 1 \# L1_wr_a4 $end
$upscope $end
$scope begin L1_CPU_Dmem[13] $end
$var wire 1 ]# L1_wr_a4 $end
$upscope $end
$scope begin L1_CPU_Dmem[14] $end
$var wire 1 ^# L1_wr_a4 $end
$upscope $end
$scope begin L1_CPU_Dmem[15] $end
$var wire 1 _# L1_wr_a4 $end
$upscope $end
$scope begin L1_CPU_Imem[0] $end
$upscope $end
$scope begin L1_CPU_Imem[1] $end
$upscope $end
$scope begin L1_CPU_Imem[2] $end
$upscope $end
$scope begin L1_CPU_Imem[3] $end
$upscope $end
$scope begin L1_CPU_Imem[4] $end
$upscope $end
$scope begin L1_CPU_Imem[5] $end
$upscope $end
$scope begin L1_CPU_Imem[6] $end
$upscope $end
$scope begin L1_CPU_Imem[7] $end
$upscope $end
$scope begin L1_CPU_Imem[8] $end
$upscope $end
$scope begin L1_CPU_Imem[9] $end
$upscope $end
$scope begin L1_CPU_Imem[10] $end
$upscope $end
$scope begin L1_CPU_Imem[11] $end
$upscope $end
$scope begin L1_CPU_Imem[12] $end
$upscope $end
$scope begin L1_CPU_Xreg[0] $end
$var wire 1 `# L1_wr_a3 $end
$upscope $end
$scope begin L1_CPU_Xreg[1] $end
$var wire 1 a# L1_wr_a3 $end
$upscope $end
$scope begin L1_CPU_Xreg[2] $end
$var wire 1 b# L1_wr_a3 $end
$upscope $end
$scope begin L1_CPU_Xreg[3] $end
$var wire 1 c# L1_wr_a3 $end
$upscope $end
$scope begin L1_CPU_Xreg[4] $end
$var wire 1 d# L1_wr_a3 $end
$upscope $end
$scope begin L1_CPU_Xreg[5] $end
$var wire 1 e# L1_wr_a3 $end
$upscope $end
$scope begin L1_CPU_Xreg[6] $end
$var wire 1 f# L1_wr_a3 $end
$upscope $end
$scope begin L1_CPU_Xreg[7] $end
$var wire 1 g# L1_wr_a3 $end
$upscope $end
$scope begin L1_CPU_Xreg[8] $end
$var wire 1 h# L1_wr_a3 $end
$upscope $end
$scope begin L1_CPU_Xreg[9] $end
$var wire 1 i# L1_wr_a3 $end
$upscope $end
$scope begin L1_CPU_Xreg[10] $end
$var wire 1 j# L1_wr_a3 $end
$upscope $end
$scope begin L1_CPU_Xreg[11] $end
$var wire 1 k# L1_wr_a3 $end
$upscope $end
$scope begin L1_CPU_Xreg[12] $end
$var wire 1 l# L1_wr_a3 $end
$upscope $end
$scope begin L1_CPU_Xreg[13] $end
$var wire 1 m# L1_wr_a3 $end
$upscope $end
$scope begin L1_CPU_Xreg[14] $end
$var wire 1 n# L1_wr_a3 $end
$upscope $end
$scope begin L1_CPU_Xreg[15] $end
$var wire 1 o# L1_wr_a3 $end
$upscope $end
$scope begin L1_CPU_Xreg[16] $end
$var wire 1 p# L1_wr_a3 $end
$upscope $end
$scope begin L1_CPU_Xreg[17] $end
$var wire 1 q# L1_wr_a3 $end
$upscope $end
$scope begin L1_CPU_Xreg[18] $end
$var wire 1 r# L1_wr_a3 $end
$upscope $end
$scope begin L1_CPU_Xreg[19] $end
$var wire 1 s# L1_wr_a3 $end
$upscope $end
$scope begin L1_CPU_Xreg[20] $end
$var wire 1 t# L1_wr_a3 $end
$upscope $end
$scope begin L1_CPU_Xreg[21] $end
$var wire 1 u# L1_wr_a3 $end
$upscope $end
$scope begin L1_CPU_Xreg[22] $end
$var wire 1 v# L1_wr_a3 $end
$upscope $end
$scope begin L1_CPU_Xreg[23] $end
$var wire 1 w# L1_wr_a3 $end
$upscope $end
$scope begin L1_CPU_Xreg[24] $end
$var wire 1 x# L1_wr_a3 $end
$upscope $end
$scope begin L1_CPU_Xreg[25] $end
$var wire 1 y# L1_wr_a3 $end
$upscope $end
$scope begin L1_CPU_Xreg[26] $end
$var wire 1 z# L1_wr_a3 $end
$upscope $end
$scope begin L1_CPU_Xreg[27] $end
$var wire 1 {# L1_wr_a3 $end
$upscope $end
$scope begin L1_CPU_Xreg[28] $end
$var wire 1 |# L1_wr_a3 $end
$upscope $end
$scope begin L1_CPU_Xreg[29] $end
$var wire 1 }# L1_wr_a3 $end
$upscope $end
$scope begin L1_CPU_Xreg[30] $end
$var wire 1 ~# L1_wr_a3 $end
$upscope $end
$scope begin L1_CPU_Xreg[31] $end
$var wire 1 !$ L1_wr_a3 $end
$upscope $end
$scope begin L1gen_CPU_Dmem[0] $end
$upscope $end
$scope begin L1gen_CPU_Dmem[1] $end
$upscope $end
$scope begin L1gen_CPU_Dmem[2] $end
$upscope $end
$scope begin L1gen_CPU_Dmem[3] $end
$upscope $end
$scope begin L1gen_CPU_Dmem[4] $end
$upscope $end
$scope begin L1gen_CPU_Dmem[5] $end
$upscope $end
$scope begin L1gen_CPU_Dmem[6] $end
$upscope $end
$scope begin L1gen_CPU_Dmem[7] $end
$upscope $end
$scope begin L1gen_CPU_Dmem[8] $end
$upscope $end
$scope begin L1gen_CPU_Dmem[9] $end
$upscope $end
$scope begin L1gen_CPU_Dmem[10] $end
$upscope $end
$scope begin L1gen_CPU_Dmem[11] $end
$upscope $end
$scope begin L1gen_CPU_Dmem[12] $end
$upscope $end
$scope begin L1gen_CPU_Dmem[13] $end
$upscope $end
$scope begin L1gen_CPU_Dmem[14] $end
$upscope $end
$scope begin L1gen_CPU_Dmem[15] $end
$upscope $end
$scope begin L1gen_CPU_Xreg[0] $end
$upscope $end
$scope begin L1gen_CPU_Xreg[1] $end
$upscope $end
$scope begin L1gen_CPU_Xreg[2] $end
$upscope $end
$scope begin L1gen_CPU_Xreg[3] $end
$upscope $end
$scope begin L1gen_CPU_Xreg[4] $end
$upscope $end
$scope begin L1gen_CPU_Xreg[5] $end
$upscope $end
$scope begin L1gen_CPU_Xreg[6] $end
$upscope $end
$scope begin L1gen_CPU_Xreg[7] $end
$upscope $end
$scope begin L1gen_CPU_Xreg[8] $end
$upscope $end
$scope begin L1gen_CPU_Xreg[9] $end
$upscope $end
$scope begin L1gen_CPU_Xreg[10] $end
$upscope $end
$scope begin L1gen_CPU_Xreg[11] $end
$upscope $end
$scope begin L1gen_CPU_Xreg[12] $end
$upscope $end
$scope begin L1gen_CPU_Xreg[13] $end
$upscope $end
$scope begin L1gen_CPU_Xreg[14] $end
$upscope $end
$scope begin L1gen_CPU_Xreg[15] $end
$upscope $end
$scope begin L1gen_CPU_Xreg[16] $end
$upscope $end
$scope begin L1gen_CPU_Xreg[17] $end
$upscope $end
$scope begin L1gen_CPU_Xreg[18] $end
$upscope $end
$scope begin L1gen_CPU_Xreg[19] $end
$upscope $end
$scope begin L1gen_CPU_Xreg[20] $end
$upscope $end
$scope begin L1gen_CPU_Xreg[21] $end
$upscope $end
$scope begin L1gen_CPU_Xreg[22] $end
$upscope $end
$scope begin L1gen_CPU_Xreg[23] $end
$upscope $end
$scope begin L1gen_CPU_Xreg[24] $end
$upscope $end
$scope begin L1gen_CPU_Xreg[25] $end
$upscope $end
$scope begin L1gen_CPU_Xreg[26] $end
$upscope $end
$scope begin L1gen_CPU_Xreg[27] $end
$upscope $end
$scope begin L1gen_CPU_Xreg[28] $end
$upscope $end
$scope begin L1gen_CPU_Xreg[29] $end
$upscope $end
$scope begin L1gen_CPU_Xreg[30] $end
$upscope $end
$scope begin L1gen_CPU_Xreg[31] $end
$upscope $end
$scope module gen_clkP_CPU_dmem_rd_en_a5 $end
$var wire 1 F free_clk $end
$var wire 1 "$ func_en $end
$var wire 1 Q gated_clk $end
$var wire 1 #$ gating_override $end
$var wire 1 - pwr_en $end
$upscope $end
$scope module gen_clkP_CPU_rd_valid_a2 $end
$var wire 1 F free_clk $end
$var wire 1 $$ func_en $end
$var wire 1 P gated_clk $end
$var wire 1 %$ gating_override $end
$var wire 1 8 pwr_en $end
$upscope $end
$scope module gen_clkP_CPU_rd_valid_a3 $end
$var wire 1 F free_clk $end
$var wire 1 &$ func_en $end
$var wire 1 O gated_clk $end
$var wire 1 '$ gating_override $end
$var wire 1 9# pwr_en $end
$upscope $end
$scope module gen_clkP_CPU_rd_valid_a4 $end
$var wire 1 F free_clk $end
$var wire 1 ($ func_en $end
$var wire 1 N gated_clk $end
$var wire 1 )$ gating_override $end
$var wire 1 :# pwr_en $end
$upscope $end
$scope module gen_clkP_CPU_rd_valid_a5 $end
$var wire 1 F free_clk $end
$var wire 1 *$ func_en $end
$var wire 1 M gated_clk $end
$var wire 1 +$ gating_override $end
$var wire 1 ;# pwr_en $end
$upscope $end
$scope module gen_clkP_CPU_rs1_valid_a2 $end
$var wire 1 F free_clk $end
$var wire 1 ,$ func_en $end
$var wire 1 L gated_clk $end
$var wire 1 -$ gating_override $end
$var wire 1 A pwr_en $end
$upscope $end
$scope module gen_clkP_CPU_rs2_valid_a2 $end
$var wire 1 F free_clk $end
$var wire 1 .$ func_en $end
$var wire 1 K gated_clk $end
$var wire 1 /$ gating_override $end
$var wire 1 B pwr_en $end
$upscope $end
$upscope $end
$scope module dac $end
$var wire 10 0$ D [9:0] $end
$var wire 1 1$ EN $end
$var wire 11 2$ Dext [10:0] $end
$var real 1 3$ NaN $end
$var real 1 4$ OUT $end
$var real 1 5$ VREFH $end
$var real 1 6$ VREFL $end
$upscope $end
$scope module pll $end
$var wire 1 ! ENb_CP $end
$var wire 1 " ENb_VCO $end
$var wire 1 # REF $end
$var wire 1 $ VCO_IN $end
$var reg 1 , CLK $end
$var real 1 7$ lastedge $end
$var real 1 8$ period $end
$var real 1 9$ refpd $end
$upscope $end
$upscope $end
$upscope $end
$enddefinitions $end
#0
$dumpvars
r0 9$
r25 8$
r0 7$
r0 6$
r1 5$
r0 4$
rnan 3$
b0xxxxxxxxxx 2$
11$
bx 0$
0/$
1.$
0-$
1,$
0+$
1*$
0)$
1($
0'$
1&$
0%$
1$$
0#$
1"$
x!$
x~#
x}#
x|#
x{#
xz#
xy#
xx#
xw#
xv#
xu#
xt#
xs#
xr#
xq#
xp#
xo#
xn#
xm#
xl#
xk#
xj#
xi#
xh#
xg#
xf#
xe#
xd#
xc#
xb#
xa#
x`#
x_#
x^#
x]#
x\#
x[#
xZ#
xY#
xX#
xW#
xV#
xU#
xT#
xS#
xR#
xQ#
xP#
bx O#
xN#
xM#
xL#
xK#
xJ#
xI#
xH#
bx G#
bx F#
bx E#
xD#
bx C#
xB#
bx A#
bx @#
x?#
x>#
x=#
x<#
x;#
x:#
x9#
bx 8#
bx 7#
bx 6#
bx 5#
bx 4#
bx 3#
bx 2#
bx 1#
x0#
x/#
x.#
x-#
x,#
x+#
x*#
x)#
x(#
x'#
x&#
x%#
x$#
x##
x"#
x!#
x~"
x}"
x|"
x{"
xz"
xy"
xx"
xw"
xv"
xu"
xt"
xs"
xr"
xq"
xp"
xo"
xn"
xm"
xl"
xk"
xj"
xi"
xh"
xg"
xf"
xe"
xd"
xc"
xb"
xa"
x`"
x_"
x^"
x]"
x\"
x["
xZ"
xY"
xX"
xW"
xV"
xU"
xT"
xS"
xR"
xQ"
xP"
xO"
xN"
xM"
xL"
xK"
xJ"
xI"
xH"
xG"
xF"
xE"
xD"
xC"
xB"
xA"
x@"
x?"
x>"
x="
x<"
x;"
x:"
x9"
x8"
x7"
x6"
bx 5"
bx 4"
bx 3"
bx 2"
x1"
bx 0"
bx /"
bx ."
bx -"
bx ,"
bx +"
bx *"
bx )"
bx ("
b0xxxx '"
bx &"
1%"
bx $"
bx #"
x""
x!"
x~
x}
x|
x{
xz
xy
xx
xw
xv
xu
xt
xs
xr
xq
xp
xo
xn
xm
xl
xk
xj
xi
xh
xg
xf
xe
xd
xc
xb
xa
x`
x_
x^
bx ]
bx \
bx [
bx Z
bx Y
bx X
xW
xV
bx U
bx T
xS
xR
0Q
0P
0O
0N
0M
0L
0K
bx J
bx I
bx H
bx G
0F
xE
xD
xC
xB
xA
x@
bx ?
bx >
x=
x<
bx ;
bx :
09
x8
bx 7
x6
x5
x4
x3
x2
bx 1
x0
x/
x.
x-
0,
0+
bx *
1)
r0 (
r0 '
r3.3 &
0%
0$
0#
1"
x!
$end
#12500
b0xxxx 0"
11"
0<#
1Q
1P
1O
1N
1M
1L
1K
1F
1,
#20000
0%"
19
1%
#25000
0Q
0P
0O
0N
0M
0L
0K
0F
0,
#37500
b0 '"
b0 [
0=#
1<#
01"
1Q
1P
1O
1N
1M
1L
1K
1F
1,
#50000
0Q
0P
0O
0N
0M
0L
0K
0F
0,
#62500
18
0B
1A
1/
12
00
04
03
06
05
b1 $"
0z
0u
0w
0y
0v
0x
1!"
0n
0^
0}
0h
0g
0q
0m
0l
0`
0p
0|
0s
0r
0{
0t
b1 H
b0 I
b1001 J
0j
0b
0d
b0 )"
b0 ("
0""
0o
0_
0~
0a
0k
0i
0f
0c
0e
b10011 ,"
b10011 \
b100000000010010010011 1
b100000000010010010011 &"
b0 0"
b100 #"
b0 2#
1=#
0>#
1Q
1P
1O
1N
1M
1L
1K
1F
1,
#75000
0Q
0P
0O
0N
0M
0L
0K
0F
0,
#87500
b1001 5#
b0 >
b0 A#
b1 ?
b1 C#
0=
0D#
1<
1B#
0?#
1>#
19#
b1 -"
b0 3#
0/#
0-#
0)#
0'#
0%#
0##
0!#
0}"
0{"
0y"
0w"
0u"
0s"
0q"
0m"
0i"
0f"
0d"
0b"
0`"
0^"
0\"
0Z"
0X"
0T"
0P"
0L"
0H"
0D"
0@"
0>"
0<"
0:"
18"
06"
b100 4"
b1 2"
1Q
1P
1O
1N
1M
1L
1K
1F
1,
#100000
0Q
0P
0O
0N
0M
0L
0K
0F
0,
r100 7$
1#
#112500
0E
0S
b1 ]
b0 U
b1 T
0C
0D
b1001 6#
b0 :
b1 ;
b1 ."
b1 3"
b100 5"
07"
19"
0;"
0="
0?"
0A"
0E"
0I"
0M"
0Q"
0U"
0Y"
0["
0]"
0_"
0a"
0c"
0e"
0g"
0j"
0n"
0r"
0t"
0v"
0x"
0z"
0|"
0~"
0"#
0$#
0&#
0(#
0*#
0.#
00#
b0 4#
1:#
1?#
1Q
1P
1O
1N
1M
1L
1K
1F
1,
#120000
1%"
09
0%
#125000
0Q
0P
0O
0N
0M
0L
0K
0F
0,
#137500
b1 Z
b1 '"
0P#
0Q#
0R#
0S#
0T#
0U#
0V#
0W#
0X#
0Y#
0Z#
0[#
0\#
0]#
0^#
0_#
b100 [
0.
b1001 7#
0M#
0-
0K#
0I#
1V
b1 F#
1W
b0 E#
0<#
1;#
b1 1#
0+#
0o"
0k"
0h"
0V"
0R"
0N"
0J"
0F"
0B"
11"
1Q
1P
1O
1N
1M
1L
1K
1F
1,
#141665
1$
#150000
0Q
0P
0O
0N
0M
0L
0K
0F
0,
#162500
1i#
1@
b10 '"
b1 Y
b1000 [
1R
b101011 $"
0`#
0a#
0b#
0c#
0d#
0e#
0f#
0g#
0h#
0j#
0k#
0l#
0m#
0n#
0o#
0p#
0q#
0r#
0s#
0t#
0u#
0v#
0w#
0x#
0y#
0z#
0{#
0|#
0}#
0~#
0!$
b1011 H
b1010 J
b1 ("
b1001 X
b10101100000000010100010011 1
b10101100000000010100010011 &"
b1001 8#
b1 0"
0C"
0G"
0K"
0O"
0S"
0W"
0l"
0p"
0,#
b1000 #"
b100 2#
0=#
b0 G
b0 +"
b0 @#
b1 *"
b1 G#
0J#
0L#
0N#
r0.0166177908113392 4$
b10001 2$
b10001 *
b10001 O#
b10001 0$
1Q
1P
1O
1N
1M
1L
1K
1F
1,
#175000
0Q
0P
0O
0N
0M
0L
0K
0F
0,
#187500
b11 '"
b1100 [
b0 $"
b0 H
b1011 J
b0 ("
b1011 T
b10110010011 1
b10110010011 &"
b0 7
b0 /"
b1010 5#
b1011 ;
b1011 ?
b1011 C#
1H#
0>#
b100 3#
b1100 #"
b1000 2#
b1000 4"
b101111 -"
b101011 ]
b101011 2"
b10 0"
1Q
1P
1O
1N
1M
1L
1K
1F
1,
#200000
0Q
0P
0O
0N
0M
0L
0K
0F
0,
#212500
b100 '"
b10000 [
b101011 Y
0i#
1j#
b10001 J
b101011 Z
b1010 X
b0 T
b100010010011 1
b100010010011 &"
b1011 5#
b1010 6#
b0 ;
b0 ?
b0 C#
b101111 ."
b11 0"
b0 ]
b0 2"
b101011 3"
b1100 4"
b1000 5"
b101011 1#
b10000 #"
b1100 2#
b1000 -"
b1000 3#
b100 4#
0?#
b1011 F#
1Q
1P
1O
1N
1M
1L
1K
1F
1,
#225000
0Q
0P
0O
0N
0M
0L
0K
0F
0,
